…
``` r
#==========================================#
# Section 3.3: Model Diagnostics ####
#==========================================#

augment(spbin)
```

```
## Simple feature collection with 218 features and 8 fields
## Geometry type: POINT
## Dimension:     XY
## Bounding box:  xmin: 269085 ymin: 1416151 xmax: 419057.4 ymax: 1541016
## Projected CRS: NAD83 / Alaska Albers
## # A tibble: 218 × 9
##    presence  elev strat .fitted .resid    .hat  .cooksd .std.resid           geometry
##  * <fct>    <dbl> <chr>   <dbl>  <dbl>   <dbl>    <dbl>      <dbl>        <POINT [m]>
##  1 0         469. L       -1.95 -0.516 0.0476  0.00465      -0.528 (293542.6 1541016)
##  2 0         362. L       -2.70 -0.361 0.0123  0.000548     -0.363 (298313.1 1533972)
##  3 0         173. M       -1.96 -0.514 0.00455 0.000405     -0.516 (281896.4 1532516)
##  4 0         280. L       -3.15 -0.290 0.00413 0.000117     -0.291 (298651.3 1530264)
##  5 0         620. L       -1.19 -0.728 0.168   0.0427       -0.798 (311325.3 1527705)
##  6 0         164. M       -1.71 -0.576 0.00534 0.000598     -0.578 (291421.5 1518398)
##  7 0         164. M       -1.60 -0.606 0.00576 0.000714     -0.608 (287298.3 1518035)
##  8 0         186. L       -2.50 -0.397 0.00439 0.000233     -0.398 (279050.9 1517324)
##  9 0         362. L       -1.88 -0.532 0.0239  0.00237      -0.539 (346145.9 1512479)
## 10 0         430. L       -1.54 -0.623 0.0497  0.00713      -0.639 (321354.6 1509966)
## # ℹ 208 more rows
```
…
``` r
augment(spbin, newdata = moose_preds, interval = "prediction")
```

```
## Simple feature collection with 100 features and 5 fields
## Geometry type: POINT
## Dimension:     XY
## Bounding box:  xmin: 269386.2 ymin: 1418453 xmax: 419976.2 ymax: 1541763
## Projected CRS: NAD83 / Alaska Albers
## # A tibble: 100 × 6
##     elev strat .fitted .lower  .upper           geometry
##  * <dbl> <chr>   <dbl>  <dbl>   <dbl>        <POINT [m]>
##  1  143. L      0.0666 -2.04   2.17   (401239.6 1436192)
##  2  324. L     -0.791  -3.48   1.89   (352640.6 1490695)
##  3  158. L     -1.60   -4.10   0.888  (360954.9 1491590)
##  4  221. M     -0.832  -3.07   1.41   (291839.8 1466091)
##  5  209. M      1.38   -0.769  3.53   (310991.9 1441630)
##  6  218. L     -2.59   -5.20   0.0177 (304473.8 1512103)
##  7  127. L     -2.73   -5.24  -0.220  (339011.1 1459318)
##  8  122. L     -2.32   -4.74   0.0920 (342827.3 1463452)
##  9  191  L     -1.17   -4.01   1.66   (284453.8 1502837)
## 10  105. L     -0.905  -3.05   1.24   (391343.9 1483791)
## # ℹ 90 more rows
```
…
``` r
seal
```

```
## Simple feature collection with 149 features and 4 fields
## Geometry type: POLYGON
## Dimension:     XY
## Bounding box:  xmin: 913618.8 ymin: 855730.2 xmax: 1221859 ymax: 1145054
## Projected CRS: NAD83 / Alaska Albers
## # A tibble: 149 × 5
##    log_trend stock                                                                                     geometry    trend sampled
##  *     <dbl> <fct>                                                                                <POLYGON [m]>    <dbl> <fct>  
##  1  NA       8     ((1035002 1054710, 1035002 1054542, 1035002 1053542, 1035002 1052542, 1035002 1051624, 10... NA       no     
##  2  -0.282   8     ((1037002 1039492, 1037006 1039490, 1037017 1039492, 1037035 1039496, 1037045 1039499, 10... -0.282   yes    
##  3  -0.00121 8     ((1070158 1030216, 1070185 1030207, 1070187 1030207, 1070211 1030207, 1070275 1030205, 10... -0.00121 yes    
##  4   0.0354  8     ((1054906 1034826, 1054931 1034821, 1054936 1034822, 1055001 1034828, 1055002 1034828, 10...  0.0354  yes    
##  5  -0.0160  8     ((1025142 1056940, 1025184 1056889, 1025222 1056836, 1025256 1056780, 1025275 1056747, 10... -0.0160  yes    
##  6   0.0872  8     ((1026035 1044623, 1026037 1044605, 1026072 1044610, 1026083 1044612, 1026112 1044616, 10...  0.0872  yes    
##  7  -0.266   8     ((1100345 1060709, 1100287 1060706, 1100228 1060706, 1100170 1060711, 1100112 1060718, 11... -0.266   yes    
##  8   0.0743  8     ((1030247 1029637, 1030248 1029637, 1030265 1029642, 1030328 1029656, 1030393 1029667, 10...  0.0743  yes    
##  9  NA       8     ((1043093 1020553, 1043097 1020550, 1043101 1020550, 1043166 1020557, 1043231 1020559, 10... NA       no     
## 10  -0.00961 8     ((1116002 1024542, 1116002 1023542, 1116002 1022542, 1116002 1021554, 1115988 1021564, 11... -0.00961 yes    
## # ℹ 139 more rows
```
…
